{
    "version": "1.1",
    "description": "Check easily the checksum of a file.",
    "url": "https://ci.appveyor.com/api/projects/chacas0/chksum/artifacts/bin/chksum.exe?branch=master",
    "extract_to": "$dir",
    "bin": "chksum.exe",
    "license": "Apache-2.0"
}
